…
After importing original dataset, making route variables to character
variable, selecting line, station_name, station_latitude,
station_longitude, all route variables, entry, exit_only, vending,
entrance_type, and ada columns, and convert the entry variable from
character to a logical variable, now the dataset is 1868 \* 20.

How many distinct stations are there?

``` r
nyc_sub |> 
  select(station_name, line) |> 
  distinct()
```

    ## # A tibble: 465 × 2
    ##    station_name             line    
    ##    <chr>                    <chr>   
    ##  1 25th St                  4 Avenue
    ##  2 36th St                  4 Avenue
    ##  3 45th St                  4 Avenue
    ##  4 53rd St                  4 Avenue
    ##  5 59th St                  4 Avenue
    ##  6 77th St                  4 Avenue
    ##  7 86th St                  4 Avenue
    ##  8 95th St                  4 Avenue
    ##  9 9th St                   4 Avenue
    ## 10 Atlantic Av-Barclays Ctr 4 Avenue
    ## # ℹ 455 more rows

There are totally 465 rows, thus, there are 465 distinct stations.

How many stations are ADA compliant?

``` r
nyc_sub |> 
  filter(ada == TRUE) |> 
  select(station_name, line) |> 
  distinct()
```

    ## # A tibble: 84 × 2
    ##    station_name                   line           
    ##    <chr>                          <chr>          
    ##  1 Atlantic Av-Barclays Ctr       4 Avenue       
    ##  2 DeKalb Av                      4 Avenue       
    ##  3 Pacific St                     4 Avenue       
    ##  4 Grand Central                  42nd St Shuttle
    ##  5 34th St                        6 Avenue       
    ##  6 47-50th Sts Rockefeller Center 6 Avenue       
    ##  7 Church Av                      6 Avenue       
    ##  8 21st St                        63rd Street    
    ##  9 Lexington Av                   63rd Street    
    ## 10 Roosevelt Island               63rd Street    
    ## # ℹ 74 more rows
…
``` r
nyc_sub |> 
  pivot_longer(
    route1:route11,
    names_to = "route_num",
    values_to = "route") |> 
  filter(route == "A") |> 
  select(station_name, line) |> 
  distinct()
```

    ## # A tibble: 60 × 2
    ##    station_name                  line           
    ##    <chr>                         <chr>          
    ##  1 Times Square                  42nd St Shuttle
    ##  2 125th St                      8 Avenue       
    ##  3 145th St                      8 Avenue       
    ##  4 14th St                       8 Avenue       
    ##  5 168th St - Washington Heights 8 Avenue       
    ##  6 175th St                      8 Avenue       
    ##  7 181st St                      8 Avenue       
    ##  8 190th St                      8 Avenue       
    ##  9 34th St                       8 Avenue       
    ## 10 42nd St                       8 Avenue       
    ## # ℹ 50 more rows
…
``` r
mr_trash = mr_trash |> mutate(wheel_name = "Mr. Trash Wheel")
pro_trash = pro_trash |> mutate(wheel_name = "Professor Trash Wheel")
gwy_trash = gwy_trash |> mutate(wheel_name = "Gwynnda Trash Wheel")
```

Combining these data sets.

``` r
mr_trash$year = as.numeric(mr_trash$year)
trash_wheel = bind_rows(mr_trash,pro_trash,gwy_trash)
trash_wheel
```

    ## # A tibble: 1,033 × 15
    ##    dumpster month  year date                weight_tons volume_cubic_yards
    ##       <dbl> <chr> <dbl> <dttm>                    <dbl>              <dbl>
    ##  1        1 May    2014 2014-05-16 00:00:00        4.31                 18
    ##  2        2 May    2014 2014-05-16 00:00:00        2.74                 13
    ##  3        3 May    2014 2014-05-16 00:00:00        3.45                 15
    ##  4        4 May    2014 2014-05-17 00:00:00        3.1                  15
    ##  5        5 May    2014 2014-05-17 00:00:00        4.06                 18
    ##  6        6 May    2014 2014-05-20 00:00:00        2.71                 13
    ##  7        7 May    2014 2014-05-21 00:00:00        1.91                  8
    ##  8        8 May    2014 2014-05-28 00:00:00        3.7                  16
    ##  9        9 June   2014 2014-06-05 00:00:00        2.52                 14
    ## 10       10 June   2014 2014-06-11 00:00:00        3.76                 18
    ## # ℹ 1,023 more rows
    ## # ℹ 9 more variables: plastic_bottles <dbl>, polystyrene <dbl>,
    ## #   cigarette_butts <dbl>, glass_bottles <dbl>, plastic_bags <dbl>,
    ## #   wrappers <dbl>, sports_balls <int>, homes_powered <dbl>, wheel_name <chr>
…
Create a single, well-organized dataset with all the information
contained in these data sets.

``` r
bake_result = full_join(bake, result, by = c("series","episode","baker"))

bake_total = full_join(bake_result, baker, by = c("baker","series"))
bake_total
```

    ## # A tibble: 1,145 × 11
    ##    series episode baker  signature_bake show_stopper technical result baker_name
    ##     <dbl>   <dbl> <chr>  <chr>          <chr>            <dbl> <chr>  <chr>     
    ##  1      1       1 Annet… "Light Jamaic… Red, White …         2 IN     Annetha M…
    ##  2      1       1 David  "Chocolate Or… Black Fores…         3 IN     David Cha…
    ##  3      1       1 Edd    "Caramel Cinn… <NA>                 1 IN     Edd Kimber
    ##  4      1       1 Jasmi… "Fresh Mango … <NA>                NA IN     Jasminder…
    ##  5      1       1 Jonat… "Carrot Cake … Three Tiere…         9 IN     Jonathan …
    ##  6      1       1 Lea    "Cranberry an… Raspberries…        10 OUT    Lea Harris
    ##  7      1       1 Louise "Carrot and O… Never Fail …        NA IN     Louise Br…
    ##  8      1       1 Mark   "Sticky Marma… Heart-shape…        NA OUT    Mark Whit…
    ##  9      1       1 Miran… "Triple Layer… Three Tiere…         8 IN     Miranda B…
    ## 10      1       1 Ruth   "Three Tiered… Classic Cho…        NA IN     Ruth Clem…
    ## # ℹ 1,135 more rows
    ## # ℹ 3 more variables: baker_age <dbl>, baker_occupation <chr>, hometown <chr>
…
Create a reader-friendly table showing the star baker or winner of each
episode in Seasons 5 through 10.

``` r
result_5_to_10 = result |> 
  filter(4 < series & series < 11) |>
  filter(result %in% c("WINNER","STAR BAKER"))

result_5_to_10
```

    ## # A tibble: 60 × 5
    ##    series episode baker   technical result    
    ##     <dbl>   <dbl> <chr>       <dbl> <chr>     
    ##  1      5       1 Nancy           1 STAR BAKER
    ##  2      5       2 Richard         1 STAR BAKER
    ##  3      5       3 Luis            2 STAR BAKER
    ##  4      5       4 Richard         5 STAR BAKER
    ##  5      5       5 Kate            3 STAR BAKER
    ##  6      5       6 Chetna          2 STAR BAKER
    ##  7      5       7 Richard         1 STAR BAKER
    ##  8      5       8 Richard         4 STAR BAKER
    ##  9      5       9 Richard         2 STAR BAKER
    ## 10      5      10 Nancy           1 WINNER    
    ## # ℹ 50 more rows
…
